Imagens/Experimentos/RefCarga.csv

Model,MDO4054-3
Firmware Version,2.10

Waveform Type,ANALOG
Point Format,Y
Horizontal Units,s
Horizontal Scale,0.02
Horizontal Delay,0.05978
Sample Interval,2e-05
Record Length,10000
Gating,0.0% to 100.0%
Probe Attenuation,1
Vertical Units,V
Vertical Offset,0
Vertical Scale,2
Vertical Position,-4.02
,
,
,
Label,
TIME,CH1
-4.0220e-02,15.16
-4.0200e-02,14.76
-4.0180e-02,14.76
-4.0160e-02,15
-4.0140e-02,15.32
-4.0120e-02,15.16
-4.0100e-02,14.76
-4.0080e-02,14.84
-4.0060e-02,15.16
-4.0040e-02,15.32
-4.0020e-02,15.16
-4.0000e-02,14.84
-3.9980e-02,14.84
-3.9960e-02,15.16
-3.9940e-02,15.24
-3.9920e-02,15.16
-3.9900e-02,14.84
-3.9880e-02,14.84
-3.9860e-02,15
-3.9840e-02,15.16
-3.9820e-02,15.16
-3.9800e-02,14.76
-3.9780e-02,14.76
-3.9760e-02,15.08
-3.9740e-02,15.24
-3.9720e-02,15.16
-3.9700e-02,14.76
-3.9680e-02,14.76
-3.9660e-02,15.08
-3.9640e-02,15.32
-3.9620e-02,15.16
-3.9600e-02,14.76
-3.9580e-02,14.84
-3.9560e-02,15
-3.9540e-02,15.24
-3.9520e-02,15.08
-3.9500e-02,14.84
-3.9480e-02,14.84
-3.9460e-02,15.08
-3.9440e-02,15.24
-3.9420e-02,15
-3.9400e-02,14.84
-3.9380e-02,14.84
-3.9360e-02,15.08
-3.9340e-02,15.24
-3.9320e-02,15
-3.9300e-02,14.84
-3.9280e-02,14.84
-3.9260e-02,15
-3.9240e-02,15.24
-3.9220e-02,15.16
-3.9200e-02,14.76
-3.9180e-02,14.92
-3.9160e-02,15.08
-3.9140e-02,15.24
-3.9120e-02,15.24
-3.9100e-02,14.84
-3.9080e-02,14.92
-3.9060e-02,15.08
-3.9040e-02,15.4
-3.9020e-02,15.08
-3.9000e-02,14.76
-3.8980e-02,14.84
-3.8960e-02,15
-3.8940e-02,15.24
-3.8920e-02,15.16
-3.8900e-02,14.92
-3.8880e-02,14.92
-3.8860e-02,15.16
-3.8840e-02,15.32
-3.8820e-02,15
-3.8800e-02,14.84
-3.8780e-02,14.84
-3.8760e-02,15.08
-3.8740e-02,15.16
-3.8720e-02,15
-3.8700e-02,14.68
-3.8680e-02,14.84
-3.8660e-02,15
-3.8640e-02,15.24
-3.8620e-02,15.08
-3.8600e-02,14.68
-3.8580e-02,14.76
-3.8560e-02,15.08
-3.8540e-02,15.24
-3.8520e-02,15.08
-3.8500e-02,14.68
-3.8480e-02,14.84
-3.8460e-02,15.08
-3.8440e-02,15.24
-3.8420e-02,15.16
-3.8400e-02,14.76
-3.8380e-02,14.92
-3.8360e-02,15
-3.8340e-02,15.24
-3.8320e-02,15.08
-3.8300e-02,14.76
-3.8280e-02,14.76
-3.8260e-02,15.08
-3.8240e-02,15.24
-3.8220e-02,15.16
-3.8200e-02,14.84
-3.8180e-02,14.84
-3.8160e-02,15
-3.8140e-02,15.24
-3.8120e-02,15.08
-3.8100e-02,14.76
-3.8080e-02,14.84
-3.8060e-02,15.08
-3.8040e-02,15.24
-3.8020e-02,15.16
-3.8000e-02,14.84
-3.7980e-02,14.84
-3.7960e-02,15
-3.7940e-02,15.4
-3.7920e-02,15.08
-3.7900e-02,14.84
-3.7880e-02,14.92
-3.7860e-02,15
-3.7840e-02,15.24
-3.7820e-02,15.08
-3.7800e-02,14.84
-3.7780e-02,14.84
-3.7760e-02,15.08
-3.7740e-02,15.24
-3.7720e-02,15.24
-3.7700e-02,14.92
-3.7680e-02,14.92
-3.7660e-02,15
-3.7640e-02,15.4
-3.7620e-02,15.16
-3.7600e-02,14.76
-3.7580e-02,15.08
-3.7560e-02,15.08
-3.7540e-02,15.24
-3.7520e-02,15.08
-3.7500e-02,14.84
-3.7480e-02,14.76
-3.7460e-02,15.08
-3.7440e-02,15.32
-3.7420e-02,15.08
-3.7400e-02,14.76
-3.7380e-02,14.84
-3.7360e-02,15
-3.7340e-02,15.24
-3.7320e-02,15.08
-3.7300e-02,14.84
-3.7280e-02,14.76
-3.7260e-02,15.08
-3.7240e-02,15.16
-3.7220e-02,15.08
-3.7200e-02,14.84
-3.7180e-02,14.68
-3.7160e-02,14.92
-3.7140e-02,15.16
-3.7120e-02,15.08
-3.7100e-02,14.68
-3.7080e-02,14.84
-3.7060e-02,15
-3.7040e-02,15.24
-3.7020e-02,15.08
-3.7000e-02,14.68
-3.6980e-02,14.76
-3.6960e-02,15
-3.6940e-02,15.16
-3.6920e-02,15.08
-3.6900e-02,14.68
-3.6880e-02,14.76
-3.6860e-02,15
-3.6840e-02,15.4
-3.6820e-02,15
-3.6800e-02,14.84
-3.6780e-02,14.84
-3.6760e-02,15.16
-3.6740e-02,15.24
-3.6720e-02,15.08
-3.6700e-02,14.76
-3.6680e-02,14.92
-3.6660e-02,15
-3.6640e-02,15.32
-3.6620e-02,15.24
-3.6600e-02,14.76
-3.6580e-02,14.84
-3.6560e-02,15
-3.6540e-02,15.24
-3.6520e-02,15
-3.6500e-02,14.84
-3.6480e-02,14.76
-3.6460e-02,15.08
-3.6440e-02,15.32
-3.6420e-02,15.16
-3.6400e-02,14.76
-3.6380e-02,14.84
-3.6360e-02,15
-3.6340e-02,15.08
-3.6320e-02,15.08
-3.6300e-02,14.76
-3.6280e-02,14.68
-3.6260e-02,14.92
-3.6240e-02,15.16
-3.6220e-02,15
-3.6200e-02,14.68
-3.6180e-02,14.84
-3.6160e-02,15
-3.6140e-02,15.16
-3.6120e-02,14.92
-3.6100e-02,14.6
-3.6080e-02,14.68
-3.6060e-02,15
-3.6040e-02,15.24
-3.6020e-02,15
-3.6000e-02,14.76
-3.5980e-02,14.76
-3.5960e-02,15.08
-3.5940e-02,15.24
-3.5920e-02,15.08
-3.5900e-02,14.84
-3.5880e-02,14.92
-3.5860e-02,15.08
-3.5840e-02,15.24
-3.5820e-02,15
-3.5800e-02,14.76
-3.5780e-02,14.84
-3.5760e-02,15.08
-3.5740e-02,15.16
-3.5720e-02,15.08
-3.5700e-02,14.84
-3.5680e-02,14.68
-3.5660e-02,15
-3.5640e-02,15.08
-3.5620e-02,15
-3.5600e-02,14.76
-3.5580e-02,14.76
-3.5560e-02,15
-3.5540e-02,15.16
-3.5520e-02,15.08
-3.5500e-02,14.76
-3.5480e-02,14.76
-3.5460e-02,15
-3.5440e-02,15.24
-3.5420e-02,15.16
-3.5400e-02,14.68
-3.5380e-02,14.92
-3.5360e-02,15
-3.5340e-02,15.24
-3.5320e-02,15.08
-3.5300e-02,14.76
-3.5280e-02,14.76
-3.5260e-02,15
-3.5240e-02,15.24
-3.5220e-02,15.08
-3.5200e-02,14.68
-3.5180e-02,14.68
-3.5160e-02,14.92
-3.5140e-02,15.16
-3.5120e-02,15.16
-3.5100e-02,14.68
-3.5080e-02,14.84
-3.5060e-02,15
-3.5040e-02,15.24
-3.5020e-02,15.08
-3.5000e-02,14.68
-3.4980e-02,14.76
-3.4960e-02,15
-3.4940e-02,15.08
-3.4920e-02,15
-3.4900e-02,14.84
-3.4880e-02,14.84
-3.4860e-02,15
-3.4840e-02,15.16
-3.4820e-02,15
-3.4800e-02,14.68
-3.4780e-02,14.6
-3.4760e-02,14.92
-3.4740e-02,15.16
-3.4720e-02,14.92
-3.4700e-02,14.68
-3.4680e-02,14.76
-3.4660e-02,14.92
-3.4640e-02,15.16
-3.4620e-02,14.92
-3.4600e-02,14.68
-3.4580e-02,14.76
-3.4560e-02,15
-3.4540e-02,15.24
-3.4520e-02,14.92
-3.4500e-02,14.84
-3.4480e-02,14.76
-3.4460e-02,15
-3.4440e-02,15.24
-3.4420e-02,15.08
-3.4400e-02,14.76
-3.4380e-02,14.84
-3.4360e-02,14.92
-3.4340e-02,15.16
-3.4320e-02,15.08
-3.4300e-02,14.76
-3.4280e-02,14.84
-3.4260e-02,15.08
-3.4240e-02,15.16
-3.4220e-02,15
-3.4200e-02,14.68
-3.4180e-02,14.76
-3.4160e-02,15.08
-3.4140e-02,15.16
-3.4120e-02,15.08
-3.4100e-02,14.68
-3.4080e-02,14.76
-3.4060e-02,15
-3.4040e-02,15.24
-3.4020e-02,15.08
-3.4000e-02,14.68
-3.3980e-02,14.76
-3.3960e-02,15
-3.3940e-02,15.32
-3.3920e-02,15
-3.3900e-02,14.84
-3.3880e-02,14.76
-3.3860e-02,15.16
-3.3840e-02,15.32
-3.3820e-02,15.16
-3.3800e-02,14.76
-3.3780e-02,14.92
-3.3760e-02,15
-3.3740e-02,15.24
-3.3720e-02,15.08
-3.3700e-02,14.84
-3.3680e-02,14.84
-3.3660e-02,15.16
-3.3640e-02,15.24
-3.3620e-02,15
-3.3600e-02,14.84
-3.3580e-02,15
-3.3560e-02,15
-3.3540e-02,15.24
-3.3520e-02,15.08
-3.3500e-02,14.84
-3.3480e-02,14.84
-3.3460e-02,15.08
-3.3440e-02,15.16
-3.3420e-02,15
-3.3400e-02,14.76
-3.3380e-02,14.76
-3.3360e-02,15
-3.3340e-02,15.16
-3.3320e-02,15
-3.3300e-02,14.84
-3.3280e-02,14.68
-3.3260e-02,14.92
-3.3240e-02,15.24
-3.3220e-02,15.08
-3.3200e-02,14.68
-3.3180e-02,14.76
-3.3160e-02,15.08
-3.3140e-02,15.08
-3.3120e-02,15
-3.3100e-02,14.68
-3.3080e-02,14.76
-3.3060e-02,15
-3.3040e-02,15.16
-3.3020e-02,15
-3.3000e-02,14.76
-3.2980e-02,14.76
-3.2960e-02,15.08
-3.2940e-02,15.08
-3.2920e-02,15.08
-3.2900e-02,14.68
-3.2880e-02,14.84
-3.2860e-02,15
-3.2840e-02,15.32
-3.2820e-02,15
-3.2800e-02,14.84
-3.2780e-02,14.84
-3.2760e-02,15.08
-3.2740e-02,15.32
-3.2720e-02,15.08
-3.2700e-02,14.76
-3.2680e-02,14.84
-3.2660e-02,15
-3.2640e-02,15.24
-3.2620e-02,15
-3.2600e-02,14.6
-3.2580e-02,14.76
-3.2560e-02,15
-3.2540e-02,15.24
-3.2520e-02,15.16
-3.2500e-02,14.76
-3.2480e-02,14.68
-3.2460e-02,15.08
-3.2440e-02,15.16
-3.2420e-02,15
-3.2400e-02,14.68
-3.2380e-02,14.76
-3.2360e-02,15
-3.2340e-02,15.24
-3.2320e-02,14.92
-3.2300e-02,14.68
-3.2280e-02,14.76
-3.2260e-02,15.08
-3.2240e-02,15.24
-3.2220e-02,15
-3.2200e-02,14.68
-3.2180e-02,14.84
-3.2160e-02,15.08
-3.2140e-02,15.24
-3.2120e-02,15.08
-3.2100e-02,14.68
-3.2080e-02,14.84
-3.2060e-02,15.08
-3.2040e-02,15.24
-3.2020e-02,15.08
-3.2000e-02,14.84
-3.1980e-02,14.76
-3.1960e-02,15.08
-3.1940e-02,15.24
-3.1920e-02,15.08
-3.1900e-02,14.76
-3.1880e-02,14.76
-3.1860e-02,15.08
-3.1840e-02,15.24
-3.1820e-02,15.16
-3.1800e-02,14.68
-3.1780e-02,14.76
-3.1760e-02,15.08
-3.1740e-02,15.4
-3.1720e-02,15.08
-3.1700e-02,14.68
-3.1680e-02,14.92
-3.1660e-02,15.08
-3.1640e-02,15.24
-3.1620e-02,14.92
-3.1600e-02,14.68
-3.1580e-02,14.68
-3.1560e-02,15
-3.1540e-02,15.24
-3.1520e-02,15
-3.1500e-02,14.68
-3.1480e-02,14.92
-3.1460e-02,15
-3.1440e-02,15.16
-3.1420e-02,15.08
-3.1400e-02,14.6
-3.1380e-02,14.76
-3.1360e-02,14.92
-3.1340e-02,15.16
-3.1320e-02,15
-3.1300e-02,14.6
-3.1280e-02,14.76
-3.1260e-02,14.92
-3.1240e-02,15.24
-3.1220e-02,15
-3.1200e-02,14.76
-3.1180e-02,14.84
-3.1160e-02,15.08
-3.1140e-02,15.24
-3.1120e-02,15
-3.1100e-02,14.76
-3.1080e-02,14.76
-3.1060e-02,15.16
-3.1040e-02,15.24
-3.1020e-02,15
-3.1000e-02,14.76
-3.0980e-02,14.68
-3.0960e-02,15.24
-3.0940e-02,15.24
-3.0920e-02,14.92
-3.0900e-02,14.68
-3.0880e-02,14.84
-3.0860e-02,15.08
-3.0840e-02,15.24
-3.0820e-02,15.08
-3.0800e-02,14.84
-3.0780e-02,14.92
-3.0760e-02,15
-3.0740e-02,15.24
-3.0720e-02,15.08
-3.0700e-02,14.84
-3.0680e-02,14.84
-3.0660e-02,15.08
-3.0640e-02,15.32
-3.0620e-02,15.08
-3.0600e-02,14.84
-3.0580e-02,14.92
-3.0560e-02,15.16
-3.0540e-02,15.32
-3.0520e-02,15.08
-3.0500e-02,14.76
-3.0480e-02,14.92
-3.0460e-02,15.08
-3.0440e-02,15.24
-3.0420e-02,15.16
-3.0400e-02,14.84
-3.0380e-02,14.76
-3.0360e-02,15.16
-3.0340e-02,15.16
-3.0320e-02,15.08
-3.0300e-02,14.84
-3.0280e-02,14.84
-3.0260e-02,15.16
-3.0240e-02,15.08
-3.0220e-02,15.08
-3.0200e-02,14.84
-3.0180e-02,14.84
-3.0160e-02,15
-3.0140e-02,15.24
-3.0120e-02,15
-3.0100e-02,14.84
-3.0080e-02,14.84
-3.0060e-02,15.16
-3.0040e-02,15.24
-3.0020e-02,14.92
-3.0000e-02,14.84
-2.9980e-02,14.92
-2.9960e-02,15.08
-2.9940e-02,15.24
-2.9920e-02,15
-2.9900e-02,14.84
-2.9880e-02,14.92
-2.9860e-02,15.08
-2.9840e-02,15.4
-2.9820e-02,15.16
-2.9800e-02,14.84
-2.9780e-02,14.84
-2.9760e-02,15.16
-2.9740e-02,15.32
-2.9720e-02,15.08
-2.9700e-02,14.84
-2.9680e-02,14.84
-2.9660e-02,15.24
-2.9640e-02,15.24
-2.9620e-02,15
-2.9600e-02,14.68
-2.9580e-02,14.84
-2.9560e-02,14.92
-2.9540e-02,15.24
-2.9520e-02,15
-2.9500e-02,14.84
-2.9480e-02,14.84
-2.9460e-02,15.08
-2.9440e-02,15.24
-2.9420e-02,15.08
-2.9400e-02,14.84
-2.9380e-02,14.84
-2.9360e-02,15.08
-2.9340e-02,15.32
-2.9320e-02,15.16
-2.9300e-02,14.68
-2.9280e-02,14.92
-2.9260e-02,15.24
-2.9240e-02,15.24
-2.9220e-02,15.08
-2.9200e-02,14.92
-2.9180e-02,14.92
-2.9160e-02,15.08
-2.9140e-02,15.4
-2.9120e-02,15.08
-2.9100e-02,14.84
-2.9080e-02,14.84
-2.9060e-02,15.08
-2.9040e-02,15.24
-2.9020e-02,15.08
-2.9000e-02,14.76
-2.8980e-02,14.76
-2.8960e-02,15.08
-2.8940e-02,15.24
-2.8920e-02,15
-2.8900e-02,14.68
-2.8880e-02,14.92
-2.8860e-02,15.08
-2.8840e-02,15.24
-2.8820e-02,15.08
-2.8800e-02,14.76
-2.8780e-02,14.92
-2.8760e-02,15.08
-2.8740e-02,15.24
-2.8720e-02,15.24
-2.8700e-02,14.76
-2.8680e-02,14.92
-2.8660e-02,15.08
-2.8640e-02,15.16
-2.8620e-02,15.08
-2.8600e-02,14.84
-2.8580e-02,14.84
-2.8560e-02,15.16
-2.8540e-02,15.24
-2.8520e-02,15.16
-2.8500e-02,14.84
-2.8480e-02,14.84
-2.8460e-02,15.08
-2.8440e-02,15.24
-2.8420e-02,15
-2.8400e-02,14.68
-2.8380e-02,14.92
-2.8360e-02,15.16
-2.8340e-02,15.32
-2.8320e-02,15.16
-2.8300e-02,14.68
-2.8280e-02,14.92
-2.8260e-02,15.16
-2.8240e-02,15.24
-2.8220e-02,15.16
-2.8200e-02,14.76
-2.8180e-02,14.92
-2.8160e-02,15.16
-2.8140e-02,15.32
-2.8120e-02,15.16
-2.8100e-02,14.84
-2.8080e-02,14.92
-2.8060e-02,15.08
-2.8040e-02,15.4
-2.8020e-02,15.08
-2.8000e-02,14.76
-2.7980e-02,15
-2.7960e-02,15
-2.7940e-02,15.24
-2.7920e-02,15.08
-2.7900e-02,14.76
-2.7880e-02,14.84
-2.7860e-02,15.16
-2.7840e-02,15.4
-2.7820e-02,15.08
-2.7800e-02,14.68
-2.7780e-02,14.84
-2.7760e-02,15.16
-2.7740e-02,15.32
-2.7720e-02,15
-2.7700e-02,14.76
-2.7680e-02,14.76
-2.7660e-02,15.08
-2.7640e-02,15.24
-2.7620e-02,15.08
-2.7600e-02,14.84
-2.7580e-02,14.84
-2.7560e-02,15.16
-2.7540e-02,15.32
-2.7520e-02,15
-2.7500e-02,14.84
-2.7480e-02,14.84
-2.7460e-02,15.08
-2.7440e-02,15.24
-2.7420e-02,15.08
-2.7400e-02,14.68
-2.7380e-02,14.92
-2.7360e-02,15.24
-2.7340e-02,15.24
-2.7320e-02,15
-2.7300e-02,14.76
-2.7280e-02,14.92
-2.7260e-02,15.24
-2.7240e-02,15.24
-2.7220e-02,15.08
-2.7200e-02,14.84
-2.7180e-02,14.84
-2.7160e-02,15.16
-2.7140e-02,15.32
-2.7120e-02,15.16
-2.7100e-02,14.92
-2.7080e-02,14.84
-2.7060e-02,15.24
-2.7040e-02,15.24
-2.7020e-02,15.08
-2.7000e-02,14.76
-2.6980e-02,14.92
-2.6960e-02,15.16
-2.6940e-02,15.24
-2.6920e-02,15.08
-2.6900e-02,14.84
-2.6880e-02,14.84
-2.6860e-02,15.16
-2.6840e-02,15.16
-2.6820e-02,15
-2.6800e-02,14.84
-2.6780e-02,14.84
-2.6760e-02,15.08
-2.6740e-02,15.24
-2.6720e-02,15
-2.6700e-02,14.68
-2.6680e-02,14.76
-2.6660e-02,15.16
-2.6640e-02,15.24
-2.6620e-02,15.08
-2.6600e-02,14.76
-2.6580e-02,14.92
-2.6560e-02,15.08
-2.6540e-02,15.4
-2.6520e-02,15.16
-2.6500e-02,14.76
-2.6480e-02,14.92
-2.6460e-02,15.08
-2.6440e-02,15.24
-2.6420e-02,15.08
-2.6400e-02,14.76
-2.6380e-02,14.84
-2.6360e-02,15
-2.6340e-02,15.16
-2.6320e-02,15.08
-2.6300e-02,14.76
-2.6280e-02,14.84
-2.6260e-02,15.08
-2.6240e-02,15.24
-2.6220e-02,15.08
-2.6200e-02,14.76
-2.6180e-02,14.92
-2.6160e-02,15.16
-2.6140e-02,15.24
-2.6120e-02,15
-2.6100e-02,14.84
-2.6080e-02,14.76
-2.6060e-02,15.08
-2.6040e-02,15.24
-2.6020e-02,15.16
-2.6000e-02,14.68
-2.5980e-02,14.92
-2.5960e-02,15.16
-2.5940e-02,15.24
-2.5920e-02,15
-2.5900e-02,14.68
-2.5880e-02,14.92
-2.5860e-02,15.08
-2.5840e-02,15.24
-2.5820e-02,15.16
-2.5800e-02,14.76
-2.5780e-02,14.84
-2.5760e-02,15.16
-2.5740e-02,15.24
-2.5720e-02,15.08
-2.5700e-02,14.84
-2.5680e-02,14.92
-2.5660e-02,15.24
-2.5640e-02,15.24
-2.5620e-02,15.08
-2.5600e-02,14.68
-2.5580e-02,14.84
-2.5560e-02,15.08
-2.5540e-02,15.32
-2.5520e-02,15.16
-2.5500e-02,14.92
-2.5480e-02,14.84
-2.5460e-02,15.16
-2.5440e-02,15.24
-2.5420e-02,15
-2.5400e-02,14.92
-2.5380e-02,14.84
-2.5360e-02,15.24
-2.5340e-02,15.16
-2.5320e-02,15
-2.5300e-02,14.76
-2.5280e-02,14.84
-2.5260e-02,15.08
-2.5240e-02,15.24
-2.5220e-02,15.08
-2.5200e-02,14.68
-2.5180e-02,14.92
-2.5160e-02,15.16
-2.5140e-02,15.24
-2.5120e-02,15.08
-2.5100e-02,14.76
-2.5080e-02,15
-2.5060e-02,15.24
-2.5040e-02,15.24
-2.5020e-02,15.08
-2.5000e-02,14.84
-2.4980e-02,14.92
-2.4960e-02,15.24
-2.4940e-02,15.32
-2.4920e-02,15.08
-2.4900e-02,14.84
-2.4880e-02,14.92
-2.4860e-02,15.08
-2.4840e-02,15.24
-2.4820e-02,15
-2.4800e-02,14.92
-2.4780e-02,14.92
-2.4760e-02,15.16
-2.4740e-02,15.24
-2.4720e-02,15.08
-2.4700e-02,14.92
-2.4680e-02,14.84
-2.4660e-02,15.24
-2.4640e-02,15.24
-2.4620e-02,14.92
-2.4600e-02,14.92
-2.4580e-02,15
-2.4560e-02,15.16
-2.4540e-02,15.32
-2.4520e-02,15.08
-2.4500e-02,14.84
-2.4480e-02,15
-2.4460e-02,15.16
-2.4440e-02,15.32
-2.4420e-02,15.08
-2.4400e-02,14.84
-2.4380e-02,14.92
-2.4360e-02,15.16
-2.4340e-02,15.32
-2.4320e-02,15.08
-2.4300e-02,14.84
-2.4280e-02,14.92
-2.4260e-02,15.16
-2.4240e-02,15.4
-2.4220e-02,15.24
-2.4200e-02,14.76
-2.4180e-02,15
-2.4160e-02,15.24
-2.4140e-02,15.24
-2.4120e-02,15.08
-2.4100e-02,14.84
-2.4080e-02,14.84
-2.4060e-02,15.24
-2.4040e-02,15.24
-2.4020e-02,15.16
-2.4000e-02,14.76
-2.3980e-02,14.84
-2.3960e-02,15.08
-2.3940e-02,15.32
-2.3920e-02,15.08
-2.3900e-02,14.92
-2.3880e-02,15
-2.3860e-02,15.08
-2.3840e-02,15.24
-2.3820e-02,15.08
-2.3800e-02,14.84
-2.3780e-02,14.84
-2.3760e-02,15.08
-2.3740e-02,15.24
-2.3720e-02,15.08
-2.3700e-02,14.92
-2.3680e-02,14.92
-2.3660e-02,15.24
-2.3640e-02,15.48
-2.3620e-02,15
-2.3600e-02,14.84
-2.3580e-02,14.84
-2.3560e-02,15.16
-2.3540e-02,15.24
-2.3520e-02,15.08
-2.3500e-02,14.84
-2.3480e-02,15
-2.3460e-02,15.24
-2.3440e-02,15.24
-2.3420e-02,15.08
-2.3400e-02,14.92
-2.3380e-02,14.92
-2.3360e-02,15.08
-2.3340e-02,15.24
-2.3320e-02,15.08
-2.3300e-02,14.84
-2.3280e-02,14.92
-2.3260e-02,15.08
-2.3240e-02,15.16
-2.3220e-02,15
-2.3200e-02,14.68
-2.3180e-02,14.84
-2.3160e-02,15.08
-2.3140e-02,15.24
-2.3120e-02,15.08
-2.3100e-02,14.84
-2.3080e-02,14.76
-2.3060e-02,15.08
-2.3040e-02,15.24
-2.3020e-02,15
-2.3000e-02,14.84
-2.2980e-02,14.84
-2.2960e-02,15.24
-2.2940e-02,15.32
-2.2920e-02,15.08
-2.2900e-02,14.84
-2.2880e-02,14.84
-2.2860e-02,15.16
-2.2840e-02,15.16
-2.2820e-02,15.16
-2.2800e-02,14.68
-2.2780e-02,14.84
-2.2760e-02,15.32
-2.2740e-02,15.48
-2.2720e-02,15.16
-2.2700e-02,14.92
-2.2680e-02,15.08
-2.2660e-02,15.08
-2.2640e-02,15.24
-2.2620e-02,15.08
-2.2600e-02,14.76
-2.2580e-02,14.84
-2.2560e-02,15.24
-2.2540e-02,15.24
-2.2520e-02,15
-2.2500e-02,14.84
-2.2480e-02,14.84
-2.2460e-02,15.16
-2.2440e-02,15.24
-2.2420e-02,14.92
-2.2400e-02,14.76
-2.2380e-02,14.84
-2.2360e-02,15.16
-2.2340e-02,15.24
-2.2320e-02,15
-2.2300e-02,14.92
-2.2280e-02,14.92
-2.2260e-02,15.08
-2.2240e-02,15.32
-2.2220e-02,15.16
-2.2200e-02,14.68
-2.2180e-02,14.92
-2.2160e-02,15.08
-2.2140e-02,15.24
-2.2120e-02,15
-2.2100e-02,14.84
-2.2080e-02,15
-2.2060e-02,15.24
-2.2040e-02,15.4
-2.2020e-02,15.08
-2.2000e-02,14.84
-2.1980e-02,14.92
-2.1960e-02,15.08
-2.1940e-02,15.32
-2.1920e-02,15.16
-2.1900e-02,14.76
-2.1880e-02,14.92
-2.1860e-02,15.24
-2.1840e-02,15.32
-2.1820e-02,15.08
-2.1800e-02,14.84
-2.1780e-02,14.92
-2.1760e-02,15.32
-2.1740e-02,15.32
-2.1720e-02,15.16
-2.1700e-02,14.92
-2.1680e-02,15
-2.1660e-02,15.32
-2.1640e-02,15.32
-2.1620e-02,15.08
-2.1600e-02,14.76
-2.1580e-02,15
-2.1560e-02,15.16
-2.1540e-02,15.24
-2.1520e-02,15
-2.1500e-02,14.84
-2.1480e-02,14.84
-2.1460e-02,15.16
-2.1440e-02,15.32
-2.1420e-02,14.92
-2.1400e-02,14.84
-2.1380e-02,14.84
-2.1360e-02,15.08
-2.1340e-02,15.24
-2.1320e-02,14.92
-2.1300e-02,14.76
-2.1280e-02,15
-2.1260e-02,15.16
-2.1240e-02,15.24
-2.1220e-02,15
-2.1200e-02,14.76
-2.1180e-02,14.84
-2.1160e-02,15.08
-2.1140e-02,15.16
-2.1120e-02,15.08
-2.1100e-02,14.68
-2.1080e-02,14.76
-2.1060e-02,15.16
-2.1040e-02,15.24
-2.1020e-02,15
-2.1000e-02,14.84
-2.0980e-02,14.92
-2.0960e-02,15.16
-2.0940e-02,15.16
-2.0920e-02,15
-2.0900e-02,14.76
-2.0880e-02,15
-2.0860e-02,15.08
-2.0840e-02,15.16
-2.0820e-02,15.08
-2.0800e-02,14.68
-2.0780e-02,14.84
-2.0760e-02,15.08
-2.0740e-02,15.24
-2.0720e-02,15
-2.0700e-02,14.68
-2.0680e-02,14.84
-2.0660e-02,15.24
-2.0640e-02,15.24
-2.0620e-02,14.84
-2.0600e-02,14.6
-2.0580e-02,14.84
-2.0560e-02,15.16
-2.0540e-02,15.24
-2.0520e-02,14.92
-2.0500e-02,14.84
-2.0480e-02,14.92
-2.0460e-02,15.08
-2.0440e-02,15.24
-2.0420e-02,15.08
-2.0400e-02,14.84
-2.0380e-02,14.84
-2.0360e-02,15.16
-2.0340e-02,15.24
-2.0320e-02,15
-2.0300e-02,14.92
-2.0280e-02,15
-2.0260e-02,15.16
-2.0240e-02,15.24
-2.0220e-02,15
-2.0200e-02,14.84
-2.0180e-02,14.76
-2.0160e-02,15.16
-2.0140e-02,15.24
-2.0120e-02,15
-2.0100e-02,14.68
-2.0080e-02,14.76
-2.0060e-02,15
-2.0040e-02,15.16
-2.0020e-02,14.84
-2.0000e-02,14.84
-1.9980e-02,14.76
-1.9960e-02,15
-1.9940e-02,15.16
-1.9920e-02,14.92
-1.9900e-02,14.76
-1.9880e-02,14.92
-1.9860e-02,15.16
-1.9840e-02,15.24
-1.9820e-02,15.08
-1.9800e-02,14.76
-1.9780e-02,14.92
-1.9760e-02,15.24
-1.9740e-02,15.32
-1.9720e-02,15.08
-1.9700e-02,14.76
-1.9680e-02,14.92
-1.9660e-02,15.24
-1.9640e-02,15.32
-1.9620e-02,15
-1.9600e-02,14.84
-1.9580e-02,14.84
-1.9560e-02,15.16
-1.9540e-02,15.24
-1.9520e-02,15
-1.9500e-02,14.76
-1.9480e-02,15
-1.9460e-02,15.16
-1.9440e-02,15.32
-1.9420e-02,15
-1.9400e-02,14.68
-1.9380e-02,14.84
-1.9360e-02,15.16
-1.9340e-02,15.16
-1.9320e-02,15.08
-1.9300e-02,14.84
-1.9280e-02,14.92
-1.9260e-02,15.16
-1.9240e-02,15.24
-1.9220e-02,15
-1.9200e-02,14.76
-1.9180e-02,14.92
-1.9160e-02,15.08
-1.9140e-02,15.24
-1.9120e-02,14.84
-1.9100e-02,14.68
-1.9080e-02,14.84
-1.9060e-02,15.16
-1.9040e-02,15.24
-1.9020e-02,15
-1.9000e-02,14.76
-1.8980e-02,14.92
-1.8960e-02,15.24
-1.8940e-02,15.32
-1.8920e-02,15.08
-1.8900e-02,14.84
-1.8880e-02,14.92
-1.8860e-02,15.08
-1.8840e-02,15.24
-1.8820e-02,15.08
-1.8800e-02,14.76
-1.8780e-02,15
-1.8760e-02,15.24
-1.8740e-02,15.24
-1.8720e-02,15
-1.8700e-02,14.84
-1.8680e-02,14.92
-1.8660e-02,15.08
-1.8640e-02,15.16
-1.8620e-02,15.08
-1.8600e-02,14.84
-1.8580e-02,15
-1.8560e-02,15.24
-1.8540e-02,15.32
-1.8520e-02,15.08
-1.8500e-02,14.92
-1.8480e-02,14.92
-1.8460e-02,15.24
-1.8440e-02,15.24
-1.8420e-02,15.08
-1.8400e-02,14.92
-1.8380e-02,14.92
-1.8360e-02,15.16
-1.8340e-02,15.4
-1.8320e-02,15
-1.8300e-02,14.68
-1.8280e-02,15
-1.8260e-02,15.24
-1.8240e-02,15.32
-1.8220e-02,15
-1.8200e-02,14.76
-1.8180e-02,14.92
-1.8160e-02,15.16
-1.8140e-02,15.24
-1.8120e-02,15.16
-1.8100e-02,14.84
-1.8080e-02,14.84
-1.8060e-02,15.16
-1.8040e-02,15.16
-1.8020e-02,15
-1.8000e-02,14.76
-1.7980e-02,15
-1.7960e-02,15.16
-1.7940e-02,15.24
-1.7920e-02,15
